-r base.txt
# Look at pip issue : https://github.com/pypa/pip/issues/6121
pypiwin32==219; sys_platform == 'win32' and python_version == '3.4'
pywin32; sys_platform == 'win32' and python_version != '3.4'
